The command has indeed failed with message:
No applicable tactic.
1 goal
  
  PROP : bi
  A : Type
  Q' : A → PROP
  a : A
  ============================
  --------------------------------------∗
  ∃ _ : A, emp
