The command has indeed failed with message:
Uncaught Ltac2 exception: Not_found
1 goal
  
  PROP : bi
  BiBUpd0 : BiBUpd PROP
  A : Type
  B : Type
  D1 : A → Type
  D2 : B → Type
  G : ∀ a : A, D1 a → PROP
  H : ∀ b : B, D2 b → PROP
  a0 : A
  da0 : D1 a0
  b0 : B
  db0 : D2 b0
  ============================
  _ : H b0 db0
  --------------------------------------∗
  |==> ∃ (x : B) (x0 : D2 x), H x x0 ∗ True
storesize: 0
